{
  "title": "Into the Sea, You and Me",
  "url": "https://alexezell.com/",
  "description": "It was a blog, then a newsletter, and now a blog again.",
  "feed": {
    "subtitle": "It was a blog, then a newsletter, and now a blog again.",
    "filename": "feed.xml",
    "path": "/feed/feed.xml",
    "id": "https://alexezell.com/"
  },
  "jsonfeed": {
    "path": "/feed/feed.json",
    "url": "https://alexezell.com/feed/feed.json"
  },
  "author": {
    "name": "Alex Ezell",
    "email": "alex.ezell@hey.com",
    "url": "https://alexezell.com/about/"
  }
}
